<?xml version="1.0" encoding="utf-8"?>
<!-- Generator: Adobe Illustrator 17.1.0, SVG Export Plug-In . SVG Version: 6.00 Build 0)  -->
<!DOCTYPE svg PUBLIC "-//W3C//DTD SVG 1.1//EN" "http://www.w3.org/Graphics/SVG/1.1/DTD/svg11.dtd">
<svg version="1.1" id="Camada_1" xmlns="http://www.w3.org/2000/svg" xmlns:xlink="http://www.w3.org/1999/xlink" x="0px" y="0px"
	 viewBox="0 0 612 792" enable-background="new 0 0 612 792" xml:space="preserve">
<g>
	<g transform="translate(0.000000,512.000000) scale(0.100000,-0.100000)">
		<path fill="#73BFCB" d="M186.6,4122.3L61.2,3997v-808.3v-808.3l63.3-66.8l62.1-67.9h564.6h563.3V623.3V-999.1h1060.1h1060.1v-314
			v-314l62.1-60.9l62.1-60.9h1189h1189l60.9,62.1l60.9,62.1V-875v749.7l-62.1,60.9l-62.1,60.9H5315h-619.7l-130.1,128.8
			l-131.2,128.9h-373.7h-373.7l-126.5-126.5L3434.9,2.4v-378.3v-377.2h-937.2h-937.1V248.5V1250h937.1h937.2V936v-314l62.1-60.9
			l62.1-60.9h1189h1189l60.9,62.1l60.9,62.1v749.7v749.7l-62.1,60.9l-62.1,60.9H5315h-619.7l-130.1,128.8l-131.2,128.9h-373.7
			h-373.7l-126.5-126.5l-125.3-125.3v-378.3V1496h-937.2h-937.1v374.8v374.9h495.5h495.5l66.8,67.9l66.8,67.9v749.7v750.9
			l-63.3,60.9l-64.4,59.7h-624.3h-624.4l-123,123l-123,123H687.9H313.1L186.6,4122.3z"/>
	</g>
</g>
</svg>
